…
### To lookup number of matches on various conditions(date, city)

``` r
vb_matches %>%
  count(circuit, tournament, date, sort = TRUE)
```

    ## # A tibble: 703 x 4
    ##    circuit tournament       date           n
    ##    <chr>   <chr>            <date>     <int>
    ##  1 AVP     Manhattan Beach  2009-07-16   357
    ##  2 AVP     Manhattan Beach  2019-08-15   292
    ##  3 AVP     Manhattan Beach  2017-08-17   279
    ##  4 AVP     Manhattan Beach  2006-08-10   278
    ##  5 AVP     Hermosa Beach    2006-06-09   273
    ##  6 AVP     Manhattan Beach  2018-08-16   269
    ##  7 AVP     Huntington Beach 2010-06-03   268
    ##  8 AVP     Hermosa Beach    2010-07-16   267
    ##  9 AVP     Manhattan Beach  2007-08-09   267
    ## 10 AVP     Hermosa Beach    2019-07-25   263
    ## # ... with 693 more rows
…
``` r
vb_sets %>%
  mutate(winner_won = w_score > l_score) %>% 
  group_by(match_id) %>%
  summarise(pct_won = mean(winner_won)) %>%
  ungroup()
```

    ## `summarise()` ungrouping output (override with `.groups` argument)

    ## # A tibble: 76,756 x 2
    ##    match_id pct_won
    ##       <int>   <dbl>
    ##  1        1   0.5  
    ##  2        2   0.333
    ##  3        3   0.5  
    ##  4        4   0.5  
    ##  5        5   0    
    ##  6        6   0.333
    ##  7        7   0.5  
    ##  8        8   0.5  
    ##  9        9   0.5  
    ## 10       10   0.5  
    ## # ... with 76,746 more rows
…
## some tournament even dont have many total attacks(or other techniques)

``` r
vb_players %>%
  group_by(tournament) %>%
  summarise(pct_win = mean(!is.na(tot_attacks)),
            n = n()) %>%
  # mean of true and false is percentage
  arrange(desc(pct_win))
```

    ## `summarise()` ungrouping output (override with `.groups` argument)

    ## # A tibble: 177 x 3
    ##    tournament pct_win     n
    ##    <chr>        <dbl> <int>
    ##  1 Honolulu     1       256
    ##  2 Houston      1       360
    ##  3 Lake Tahoe   1       112
    ##  4 London       1       432
    ##  5 Waikiki      1       104
    ##  6 Charleston   0.765   852
    ##  7 Atlanta      0.754  1824
    ##  8 Louisville   0.749   876
    ##  9 Boulder      0.738  1480
    ## 10 Birmingham   0.735   664
    ## # ... with 167 more rows
…
